Jar Flux Analysis
…
cat("Jars with most sampling dates:\n")

## Jars with most sampling dates:

print(head(jar_sampling_counts, 30))

## # A tibble: 30 × 4
##    jar_num n_dates first_date last_date 
##    <chr>     <int> <date>     <date>    
##  1 100          12 2024-12-31 2025-07-28
##  2 101          12 2024-12-31 2025-07-28
##  3 102          12 2024-12-31 2025-07-28
##  4 103          12 2024-12-31 2025-07-28
##  5 104          12 2024-12-31 2025-07-28
##  6 105          12 2024-12-31 2025-07-28
##  7 106          12 2024-12-31 2025-07-28
##  8 107          12 2024-12-31 2025-07-28
##  9 108          12 2024-12-31 2025-07-28
## 10 109          12 2024-12-31 2025-07-28
## # ℹ 20 more rows
…
## Date range in plot_data: 2024-12-31 2025-07-28

# Show a sample of the plot data
cat("\nSample of plot_data:\n")

## 
## Sample of plot_data:

plot_data %>%
  select(jar_num, sampling_date, GWC) %>%
  arrange(jar_num, sampling_date) %>%
  print(n = 20)

## # A tibble: 288 × 3
##    jar_num sampling_date    GWC
##    <chr>   <date>         <dbl>
##  1 100     2024-12-31    0.0906
##  2 100     2025-01-07    0.0942
##  3 100     2025-01-14    0.0978
##  4 100     2025-01-21    0.101 
##  5 100     2025-01-28    0.105 
##  6 100     2025-02-11    0.112 
##  7 100     2025-02-25    0.0996
##  8 100     2025-03-11    0.0732
##  9 100     2025-04-16    0.0801
## 10 100     2025-05-20    0.0724
## 11 100     2025-06-24    0.0829
## 12 100     2025-07-28    0.0859
## 13 101     2024-12-31    0.0906
## 14 101     2025-01-07    0.0945
## 15 101     2025-01-14    0.0984
## 16 101     2025-01-21    0.102 
## 17 101     2025-01-28    0.106 
## 18 101     2025-02-11    0.114 
## 19 101     2025-02-25    0.102 
## 20 101     2025-03-11    0.0642
## # ℹ 268 more rows
…
